ODD Car Sales Assignment
…
sales_2016 <- readRDS(url("https://github.com/pjournal/mef03g-spo-R-ify/blob/master/sales_2016.rds?raw=true"))
sales_2017 <- readRDS(url("https://github.com/pjournal/mef03g-spo-R-ify/blob/master/sales_2017.rds?raw=true"))
sales_2018 <- readRDS(url("https://github.com/pjournal/mef03g-spo-R-ify/blob/master/sales_2018.rds?raw=true"))
sales_2019 <- readRDS(url("https://github.com/pjournal/mef03g-spo-R-ify/blob/master/sales_2019.rds?raw=true"))

combined_sales <- rbind(sales_2016, sales_2017, sales_2018, sales_2019)
combined_sales <- combined_sales %>% filter(!str_detect(brand_name,"ODD"))
combined_sales$brand_name <- str_replace_all(combined_sales$brand_name,"ASTON MARTÄ°N","ASTON MARTIN")

We should create the date column for analysis

combined_sales$YearMonth <- as.Date(as.yearmon(paste(combined_sales$year, " ", combined_sales$month), "%Y %m"))
print(combined_sales, width = Inf)

## # A tibble: 2,001 x 13
##    brand_name   auto_dom auto_imp auto_total comm_dom comm_imp comm_total
##    <chr>           <dbl>    <dbl>      <dbl>    <dbl>    <dbl>      <dbl>
##  1 ALFA ROMEO          0       12         12        0        0          0
##  2 ASTON MARTİN        0        2          2        0        0          0
##  3 AUDI                0      911        911        0        0          0
##  4 BENTLEY             0        0          0        0        0          0
##  5 BMW                 0      496        496        0        0          0
##  6 CHERY               0       30         30        0        0          0
##  7 CITROEN             0      394        394       41      207        248
##  8 DACIA               0     1235       1235        0      221        221
##  9 DS                  0        8          8        0        0          0
## 10 FERRARI             0        3          3        0        0          0
##    total_dom total_imp total_total  year month YearMonth 
##        <dbl>     <dbl>       <dbl> <dbl> <dbl> <date>    
##  1         0        12          12  2016     1 2016-01-01
##  2         0         2           2  2016     1 2016-01-01
##  3         0       911         911  2016     1 2016-01-01
##  4         0         0           0  2016     1 2016-01-01
##  5         0       496         496  2016     1 2016-01-01
##  6         0        30          30  2016     1 2016-01-01
##  7        41       601         642  2016     1 2016-01-01
##  8         0      1456        1456  2016     1 2016-01-01
##  9         0         8           8  2016     1 2016-01-01
## 10         0         3           3  2016     1 2016-01-01
## # ... with 1,991 more rows

Monthly Car Sales from 2016 to September 2019 by Brand Names

sales_byperiod <- combined_sales %>% group_by(YearMonth, brand_name) %>% summarise(total_sales = sum(total_total)) %>% arrange(desc(total_sales)) %>% top_n(1)

## Selecting by total_sales

sales_byperiod

## # A tibble: 46 x 3
## # Groups:   YearMonth [45]
##    YearMonth  brand_name total_sales
##    <date>     <chr>            <dbl>
##  1 2016-12-01 RENAULT          21078
##  2 2017-12-01 RENAULT          19054
##  3 2016-11-01 VOLKSWAGEN       14359
##  4 2017-11-01 RENAULT          13984
##  5 2016-05-01 RENAULT          12741
##  6 2016-06-01 VOLKSWAGEN       12406
##  7 2017-06-01 RENAULT          12233
##  8 2016-10-01 VOLKSWAGEN       12229
##  9 2016-04-01 RENAULT          12075
## 10 2018-12-01 FIAT             11846
## # ... with 36 more rows
…
Total Monthly Sales in Turkey

monthly_sales <- combined_sales %>% group_by(YearMonth) %>% summarise(total_sales = sum(total_total)) %>% arrange(desc(total_sales))
monthly_sales

## # A tibble: 45 x 2
##    YearMonth  total_sales
##    <date>           <dbl>
##  1 2016-12-01      141912
##  2 2017-12-01      136240
##  3 2016-11-01      122309
##  4 2017-11-01      100859
##  5 2016-05-01       93904
##  6 2017-10-01       91752
##  7 2016-06-01       91540
##  8 2017-05-01       85422
##  9 2016-04-01       84887
## 10 2017-06-01       83658
## # ... with 35 more rows
…
Total Number of Car Sales by Brand from 2016 to September 2019

total_car_numbers <- combined_sales %>% group_by(brand_name) %>% summarise(total_total = sum(total_total)) %>% arrange(desc(total_total))
total_car_numbers

## # A tibble: 49 x 2
##    brand_name    total_total
##    <chr>               <dbl>
##  1 RENAULT            380614
##  2 VOLKSWAGEN         347657
##  3 FIAT               338887
##  4 FORD               312159
##  5 HYUNDAI            151963
##  6 TOYOTA             148515
##  7 DACIA              136003
##  8 OPEL               130706
##  9 PEUGEOT            121911
## 10 MERCEDES-BENZ      107718
## # ... with 39 more rows
…
Ratio of the Number of Cars in Domestic Status to the Total Number of Cars per Month

domestic_percentage <- combined_sales %>% group_by(YearMonth) %>% summarise(total_dom = sum(total_dom), total_total = sum(total_total)) %>% mutate(percent_total_dom = total_dom/total_total) %>% arrange(desc(percent_total_dom))
domestic_percentage

## # A tibble: 45 x 4
##    YearMonth  total_dom total_total percent_total_dom
##    <date>         <dbl>       <dbl>             <dbl>
##  1 2019-05-01     16229       33016             0.492
##  2 2019-06-01     19986       42688             0.468
##  3 2019-03-01     22395       49221             0.455
##  4 2019-09-01     19085       41992             0.454
##  5 2019-07-01      8122       17927             0.453
##  6 2019-04-01     13615       30971             0.440
##  7 2019-02-01     10516       24875             0.423
##  8 2019-01-01      6068       14373             0.422
##  9 2018-12-01     31072       77706             0.400
## 10 2018-01-01     13915       35076             0.397
## # ... with 35 more rows
…
